^C:\USERS\DK612\DESKTOP\КУРСОВЫЕ\ВЕРЕЩАГИН ДЕНИС К19-2\PROJECT\SOURCE.CPP
/c /ZI /JMC /nologo /W3 /WX- /diagnostics:column /sdl /Od /Oy- /D _DEBUG /D _CONSOLE /D _UNICODE /D UNICODE /Gm- /EHsc /RTC1 /MDd /GS /fp:precise /permissive- /Zc:wchar_t /Zc:forScope /Zc:inline /Fo"DEBUG\\" /Fd"DEBUG\VC142.PDB" /Gd /TP /analyze- /FC C:\USERS\DK612\DESKTOP\КУРСОВЫЕ\ВЕРЕЩАГИН ДЕНИС К19-2\PROJECT\SOURCE.CPP
^C:\USERS\DK612\DESKTOP\COURSEWORKS\ВЕРЕЩАГИН ДЕНИС К19-2\PROJECT\SOURCE.CPP
/c /ZI /JMC /nologo /W3 /WX- /diagnostics:column /sdl /Od /Oy- /D _DEBUG /D _CONSOLE /D _UNICODE /D UNICODE /Gm- /EHsc /RTC1 /MDd /GS /fp:precise /permissive- /Zc:wchar_t /Zc:forScope /Zc:inline /Fo"DEBUG\\" /Fd"DEBUG\VC142.PDB" /Gd /TP /analyze- /FC C:\USERS\DK612\DESKTOP\COURSEWORKS\ВЕРЕЩАГИН ДЕНИС К19-2\PROJECT\SOURCE.CPP
