^C:\USERS\DK612\DESKTOP\COURSEWORKS\КУРСАЧ ГРУПОВОЙ\PROJECT1\DEBUG\SOURCE.OBJ
C:\USERS\DK612\DESKTOP\COURSEWORKS\Курсач груповой\PROJECT1\DEBUG\PROJECT1.EXE
C:\USERS\DK612\DESKTOP\COURSEWORKS\Курсач груповой\PROJECT1\DEBUG\PROJECT1.ILK
C:\USERS\DK612\DESKTOP\COURSEWORKS\КУРСАЧ ГРУПОВОЙ\PROJECT1\DEBUG\PROJECT1.PDB
