^C:\USERS\DK612\DESKTOP\COURSEWORKS\КОЗЛАН АНАСТАСИЯ К19-2\PROJECT2\SOURCE.CPP
C:\USERS\DK612\DESKTOP\COURSEWORKS\Козлан Анастасия К19-2\PROJECT2\DEBUG\VC142.PDB
C:\USERS\DK612\DESKTOP\COURSEWORKS\Козлан Анастасия К19-2\PROJECT2\DEBUG\VC142.IDB
C:\USERS\DK612\DESKTOP\COURSEWORKS\Козлан Анастасия К19-2\PROJECT2\DEBUG\SOURCE.OBJ
