^C:\USERS\DK612\DESKTOP\КУРСОВЫЕ\ВЕРЕЩАГИН ДЕНИС К19-2\PROJECT\DEBUG\SOURCE.OBJ
/OUT:"C:\USERS\DK612\DESKTOP\КУРСОВЫЕ\ВЕРЕЩАГИН ДЕНИС К19-2\PROJECT\DEBUG\PROJECT.EXE" /INCREMENTAL /NOLOGO KERNEL32.LIB USER32.LIB GDI32.LIB WINSPOOL.LIB COMDLG32.LIB ADVAPI32.LIB SHELL32.LIB OLE32.LIB OLEAUT32.LIB UUID.LIB ODBC32.LIB ODBCCP32.LIB /MANIFEST /MANIFESTUAC:"level='asInvoker' uiAccess='false'" /manifest:embed /DEBUG:FASTLINK /PDB:"C:\USERS\DK612\DESKTOP\КУРСОВЫЕ\ВЕРЕЩАГИН ДЕНИС К19-2\PROJECT\DEBUG\PROJECT.PDB" /SUBSYSTEM:CONSOLE /TLBID:1 /DYNAMICBASE /NXCOMPAT /IMPLIB:"C:\USERS\DK612\DESKTOP\КУРСОВЫЕ\ВЕРЕЩАГИН ДЕНИС К19-2\PROJECT\DEBUG\PROJECT.LIB" /MACHINE:X86 DEBUG\SOURCE.OBJ
^C:\USERS\DK612\DESKTOP\COURSEWORKS\ДАША НИКОЛАЕЦ К19-1\PROJECT\DEBUG\SOURCE.OBJ
/OUT:"C:\USERS\DK612\DESKTOP\COURSEWORKS\ДАША НИКОЛАЕЦ К19-1\PROJECT\DEBUG\PROJECT.EXE" /INCREMENTAL /NOLOGO KERNEL32.LIB USER32.LIB GDI32.LIB WINSPOOL.LIB COMDLG32.LIB ADVAPI32.LIB SHELL32.LIB OLE32.LIB OLEAUT32.LIB UUID.LIB ODBC32.LIB ODBCCP32.LIB /MANIFEST /MANIFESTUAC:"level='asInvoker' uiAccess='false'" /manifest:embed /DEBUG:FASTLINK /PDB:"C:\USERS\DK612\DESKTOP\COURSEWORKS\ДАША НИКОЛАЕЦ К19-1\PROJECT\DEBUG\PROJECT.PDB" /SUBSYSTEM:CONSOLE /TLBID:1 /DYNAMICBASE /NXCOMPAT /IMPLIB:"C:\USERS\DK612\DESKTOP\COURSEWORKS\ДАША НИКОЛАЕЦ К19-1\PROJECT\DEBUG\PROJECT.LIB" /MACHINE:X86 DEBUG\SOURCE.OBJ
