^C:\USERS\DK612\DESKTOP\КУРСОВЫЕ\ГЕТЬМАН ОЛЕКСАНДР ИПЗ19-1\PROJECT1\DEBUG\SOURCE.OBJ
C:\USERS\DK612\DESKTOP\курсовые\Гетьман Олександр ИПЗ19-1\PROJECT1\DEBUG\PROJECT1.EXE
C:\USERS\DK612\DESKTOP\курсовые\Гетьман Олександр ИПЗ19-1\PROJECT1\DEBUG\PROJECT1.ILK
C:\USERS\DK612\DESKTOP\КУРСОВЫЕ\ГЕТЬМАН ОЛЕКСАНДР ИПЗ19-1\PROJECT1\DEBUG\PROJECT1.PDB
